<?xml version="1.0" encoding="utf-8"?>
<!-- Generator: Adobe Illustrator 14.0.0, SVG Export Plug-In . SVG Version: 6.00 Build 43363)  -->
<!DOCTYPE svg PUBLIC "-//W3C//DTD SVG 1.1//EN" "http://www.w3.org/Graphics/SVG/1.1/DTD/svg11.dtd">
<svg version="1.1" id="Capa_1" xmlns="http://www.w3.org/2000/svg" xmlns:xlink="http://www.w3.org/1999/xlink" x="0px" y="0px"
	 width="163px" height="105px" viewBox="0 0 163 105" enable-background="new 0 0 163 105" xml:space="preserve">
<rect x="60.492" y="19.731" fill="#FFD700" width="14.969" height="8.01"/>
<rect x="75.461" y="19.731" fill="#F7323F" width="14.967" height="8.01"/>
<g>
	<path fill-rule="evenodd" clip-rule="evenodd" fill="#833F91" d="M34.542,79.543c-0.185,0-0.372-0.004-0.563-0.012
		c-4.498-0.193-8.205-2.116-9.914-5.148c-1.906-3.381-1.359-8.008,1.582-13.382c5.448-9.948,11.574-11.432,14.74-11.432
		c0.545,0,1.073,0.042,1.57,0.125c4.393,0.744,3.986,4.755,3.855,6.072c-0.99,9.77-3.488,11.229-4.891,11.229
		c-0.184,0-0.333-0.029-0.425-0.052c-0.908-0.24-1.648-1.039-0.917-5.227c0.66-3.789,2.351-4.884,2.615-5.032
		c0.125-0.271,0.57-1.364,0.049-2.212c-0.424-0.692-1.389-1.043-2.868-1.043c-0.188,0-0.388,0.007-0.601,0.019
		c-4.793,0.272-9.689,6.117-10.916,13.03c-0.471,2.655-0.072,4.823,1.182,6.445c1.789,2.312,4.863,3.009,7.126,3.188
		c0.146,0.011,0.292,0.015,0.442,0.015c2.429,0,5.416-1.473,6.403-2.225c0.613-0.467,2.707-2.217,3.12-2.563l0.057-0.047h0.073
		c0.449,0.002,1.228,0.059,1.394,0.403c0.053,0.108,0.084,0.467-0.061,0.649c-0.667,0.836-2.837,2.496-3.738,3.17l-0.037,0.03
		C40.044,78.497,37.615,79.543,34.542,79.543"/>
	<path fill="#833F91" d="M67.128,76.896c-0.28,0-0.571-0.042-0.952-0.109c-0.236-0.042-0.408-0.16-0.511-0.348
		c-0.291-0.541,0.106-1.459,0.125-1.499c0.009-0.025,1.491-4.48,1.81-5.755c0.039-0.156,0.03-0.269-0.023-0.341
		c-0.075-0.094-0.234-0.114-0.357-0.114c-0.822,0-2.474,0.819-3.32,1.335c-1.596,0.971-2.647,1.464-3.125,1.464
		c-0.109,0-0.193-0.025-0.256-0.074c-0.328-0.263-0.227-0.931-0.188-1.129l0.017-0.076l0.063-0.047
		c0.805-0.597,7.896-5.847,8.789-6.46c0.669-0.458,1.204-0.662,1.736-0.662c0.389,0,0.767,0.109,1.16,0.334
		c1.121,0.642,0.74,1.932,0.436,2.968c-0.294,1.001-2.217,4.862-2.594,5.616c1.006-0.888,3.854-3.367,6.134-5.075
		c0.743-0.558,1.452-0.841,2.108-0.841c1.463,0,2.164,1.4,2.191,1.459c0.007,0.011,0.141,0.316,0.857,1.755
		c0.274,0.547,0.601,0.824,0.971,0.824c0.837,0,2.009-1.319,2.119-1.502c0.137-0.232,0.246-0.452,0.313-0.593l0.13-0.279
		l1.682,1.896l-0.082,0.127c-0.224,0.346-1.004,1.519-1.735,2.081c-0.254,0.196-0.544,0.483-0.848,0.787
		c-0.72,0.714-1.537,1.524-2.378,1.664c-0.096,0.015-0.189,0.023-0.282,0.023c-1.087,0-1.884-1.024-1.89-1.035l-0.088-0.111
		l0.016-0.02c-0.159-0.307-0.708-1.339-1.609-2.77c-0.337-0.535-0.701-0.805-1.083-0.805c-0.543,0-0.95,0.545-0.956,0.551
		l-0.013,0.019c0,0-0.312,0.278-0.739,0.664c-1.545,1.394-5.16,4.659-6.018,5.406C68.198,76.694,67.719,76.896,67.128,76.896"/>
	<path fill="#833F91" d="M52.032,76.812c-1.61,0-2.551-0.743-2.696-0.869c-0.213-0.124-1.604-1.069-0.828-4.137
		c-0.371,0.311-0.887,0.715-1.354,1.082c-0.381,0.301-0.73,0.576-0.939,0.749c-0.094,0.079-0.26,0.113-0.551,0.113
		c-0.328,0-0.701-0.043-0.718-0.046l-0.028-0.003l-1.068-0.465l0.251-0.21c0.134-0.111,0.233-0.189,0.332-0.263
		c0.575-0.444,1.075-0.827,8.952-8.878c0.078-0.15,0.396-0.651,1.199-0.651c0.078,0,0.164,0.006,0.252,0.016
		c0.625,0.075,0.944,0.204,1.097,0.443c0.085,0.133,0.103,0.283,0.089,0.428c0.45-0.093,1.322-0.245,2.206-0.245
		c0.383,0,0.728,0.028,1.032,0.087c0.422,0.081,1.856,0.435,2.554,1.6c0.44,0.736,0.496,1.644,0.166,2.697
		c-0.042,0.147-0.032,0.282,0.03,0.365c0.046,0.059,0.113,0.089,0.203,0.089c0.135,0,0.302-0.069,0.471-0.194
		c0.049-0.035,0.102-0.073,0.156-0.112c0.11-0.079,0.236-0.166,0.353-0.264l0.203-0.169l0.11,0.241
		c0.146,0.323,0.377,0.837,0.523,1.175l0.059,0.134l-0.109,0.097c-0.127,0.114-0.252,0.232-0.373,0.349
		c-0.131,0.125-0.26,0.248-0.389,0.361c-0.271,0.238-1.481,1.002-1.803,1.133c-0.346,0.144-0.611,0.203-0.912,0.203
		c-0.199,0-0.4-0.028-0.569-0.074c-0.058,0.085-0.119,0.178-0.183,0.274c-0.125,0.194-0.256,0.393-0.399,0.559
		C56.178,76.051,53.621,76.812,52.032,76.812 M52.471,69.378c-0.57,1.564-1.133,3.964-0.434,4.487
		c0.301,0.224,0.59,0.327,0.907,0.327c0.937,0,2.235-0.924,4.216-2.998c1.881-1.973,1.805-3.227,1.596-3.802
		c-0.231-0.62-0.836-1.037-1.619-1.116c-0.072-0.007-0.143-0.01-0.213-0.01c-1.237,0-1.963,1.158-2.547,2.089
		c-0.146,0.233-0.283,0.451-0.418,0.637c-0.273,0.373-0.586,0.561-0.93,0.561C52.803,69.553,52.611,69.468,52.471,69.378"/>
	<path fill="#833F91" d="M85.584,91.047c-0.11,0-0.478-0.023-0.595-0.034c-2.921-0.303-2.751-7.557-2.628-9.772
		c0-0.038,0.137-4.428,1.307-9.625c2.179-9.687,7.349-23.704,10.996-23.704c0.213,0,0.42,0.042,0.616,0.13
		c0.55,0.238,0.937,0.708,1.151,1.398c0.86,2.763-1.166,8.688-5.419,15.852c-0.735,1.238-1.749,2.63-2.422,3.552
		c-0.35,0.479-0.649,0.891-0.695,0.992c-0.014,0.025-0.026,0.048-0.039,0.074c-0.158,0.29-0.527,0.97-1.554,11.088
		c-0.536,5.277-0.141,6.324,0.054,6.529c0.017,0.018,0.073,0.038,0.104,0.042c0.81-0.001,1.751-1.747,2.36-4.449
		c1.262-5.564,0.132-9.169,0.121-9.203l-0.073-0.222l0.196-0.128c0.058-0.038,0.579-0.371,1.04-0.371
		c0.383,0,0.655,0.231,0.729,0.618c0.035,0.194,0.075,0.385,0.121,0.589c0.329,1.534,0.778,3.636-0.332,9.367
		C89.763,88.19,87.785,91.047,85.584,91.047 M94.162,50.936c-0.256,0-1.107,1.084-1.858,2.779
		c-1.906,4.301-3.025,8.234-3.535,10.551c0.026-0.043,0.052-0.089,0.077-0.136c1.054-1.846,2.643-4.637,3.267-5.994l0.106-0.232
		c1.049-2.278,2.63-5.721,2.191-6.746c-0.05-0.117-0.118-0.184-0.224-0.218L94.162,50.936z"/>
	<path fill-rule="evenodd" clip-rule="evenodd" fill="#833F91" d="M131.488,77.674c-0.183,0-0.354-0.026-0.509-0.076
		c-2.836-0.947-1.751-4.847-0.37-9.786c-1.392,1.342-9.618,9.13-12.969,9.13h-0.003c-0.164,0-0.318-0.016-0.458-0.055
		c-0.659-0.174-1.089-0.493-1.277-0.948c-0.397-0.953,0.365-2.259,0.921-3.212c0.108-0.186,0.206-0.358,0.29-0.512
		c0.121-0.226,0.27-0.461,0.427-0.708c0.704-1.106,1.432-2.248,0.09-3.221c-1.146-0.832-1.966-1.073-2.524-1.219
		c-1.15-0.302-4.813,2.923-5.785,3.657c-0.224,0.169-0.444,0.293-0.665,0.293c-0.757,0-1.065-1.299-1.08-1.34l-0.048-0.122
		l0.093-0.093c0.011-0.012,1.285-0.787,1.658-1.043c1.077-0.735,2.434-1.775,3.468-3.457c0-0.039-0.002-0.081-0.004-0.125
		c-0.02-0.477-0.051-1.274,0.899-1.968c0.479-0.349,1.028-0.526,1.632-0.526c1,0,2.165,0.483,3.453,1.435
		c0.405,0.299,0.781,0.557,1.113,0.784c1.965,1.347,2.777,1.904,1.469,5.137c-0.043,0.128-1.094,3.152-1.333,3.806
		c0.748-0.369,3.65-1.898,6.188-4.602c2.573-2.741,5.959-7.957,6.782-9.247l-7.08-0.297c-0.006,0.001-0.055,0.005-0.127,0.005
		c-0.196,0-0.481-0.027-0.737-0.148c-0.344-0.165-0.527-0.459-0.527-0.849c0-0.825,0.166-1.667,1.402-1.667
		c0.056,0,0.113,0.002,0.172,0.004c0.341,0.019,1.271,0.029,2.761,0.029c2.248,0,5.121-0.022,5.778-0.026
		c0.294-0.774,1.579-3.925,3.052-3.988c0.087-0.004,0.168-0.007,0.247-0.007c0.597,0,0.966,0.112,1.162,0.35
		c0.236,0.286,0.155,0.681,0.091,0.997c-0.102,0.528-0.607,2.028-0.82,2.645h0.885c0.059,0.006,0.417,0.048,0.634,0.318
		c0.122,0.149,0.172,0.341,0.149,0.556c-0.012,0.1-0.007,0.25-0.005,0.412c0.013,0.5,0.03,1.188-0.361,1.588
		c-0.2,0.207-0.481,0.31-0.836,0.31c-0.917,0-1.471-0.074-1.73-0.123c-0.314,0.744-1.697,4.072-2.376,6.731
		c-0.501,1.956-1.669,6.533-1.225,6.885c0.475-0.019,4.252-2.625,7.568-5.072c0.102-0.118,0.541-0.606,0.968-0.606
		c0.084,0,0.163,0.02,0.235,0.055l0.038,0.019c0.202,0.099,0.393,0.193,0.457,0.406c0.063,0.194-0.002,0.432-0.214,0.824
		c-0.368,0.675-7.797,8.666-11.016,8.667H131.488z"/>
	<path fill="#833F91" d="M97.59,76.804c-1.619,0-2.564-0.752-2.7-0.87c-0.199-0.123-1.566-1.1-0.74-4.161
		c-0.343,0.344-0.879,0.807-1.705,1.395c-0.229,0.173-2.301,1.709-3.025,1.709c-0.066,0-0.124-0.011-0.175-0.03
		c-0.316-0.128-0.567-0.46-0.657-0.868c-0.09-0.401-0.002-0.785,0.229-1.031c0.2-0.211,0.44-0.467,0.781-0.467
		c0.146,0,0.295,0.05,0.441,0.146c0.575-0.427,1.573-1.262,8.902-8.748c0.078-0.151,0.395-0.653,1.2-0.653
		c0.078,0,0.161,0.007,0.25,0.017c0.626,0.076,0.945,0.204,1.098,0.443c0.085,0.132,0.104,0.283,0.088,0.429
		c0.451-0.095,1.323-0.247,2.206-0.247c0.384,0,0.729,0.03,1.032,0.088c0.683,0.131,1.921,0.502,2.532,1.524
		c0.424,0.708,0.439,2.345,0.113,3.39c-0.038,0.13-0.061,0.369-0.018,0.432c0.07,0.105,0.117,0.129,0.192,0.129
		c0.084,0,1.383-0.837,1.383-0.837s0.134,0.455,0.244,0.69c0.158,0.33,0.46,1.133,0.205,1.328c-0.843,0.644-1.144,0.76-1.409,0.863
		l-0.111,0.043c-0.344,0.144-0.607,0.22-0.91,0.203c-0.776-0.047-1.115-0.36-1.317-0.428c-0.06,0.084-0.352,0.472-0.412,0.567
		c-0.126,0.194-0.255,0.394-0.401,0.558C101.732,76.045,99.175,76.804,97.59,76.804 M98.025,69.372
		c-0.568,1.563-1.129,3.963-0.432,4.486c0.301,0.224,0.587,0.328,0.908,0.328c0.935,0,2.234-0.924,4.214-2.999
		c1.883-1.973,1.807-3.228,1.595-3.801c-0.229-0.621-0.835-1.038-1.616-1.117c-0.073-0.007-0.142-0.011-0.213-0.011
		c-1.238,0-1.964,1.16-2.55,2.09c-0.145,0.233-0.28,0.452-0.417,0.636c-0.272,0.373-0.584,0.563-0.929,0.563
		C98.359,69.547,98.167,69.46,98.025,69.372"/>
</g>
<text transform="matrix(1 0 0 1 39.4941 42.2524)"><tspan x="0" y="0" fill="#833F91" font-family="'HelveticaNeue-Light'" font-size="9.1155" letter-spacing="3">C</tspan><tspan x="9.881" y="0" fill="#833F91" font-family="'HelveticaNeue-Light'" font-size="9.1155" letter-spacing="3">O</tspan><tspan x="20.09" y="0" fill="#833F91" font-family="'HelveticaNeue-Light'" font-size="9.1155" letter-spacing="3">R</tspan><tspan x="29.689" y="0" fill="#833F91" font-family="'HelveticaNeue-Light'" font-size="9.1155" letter-spacing="3">T</tspan><tspan x="38.212" y="0" fill="#833F91" font-family="'HelveticaNeue-Light'" font-size="9.1155" letter-spacing="3">INERI</tspan><tspan x="77.481" y="0" fill="#833F91" font-family="'HelveticaNeue-Light'" font-size="9.1155">A</tspan></text>
<g>
	<rect x="90.232" y="19.731" fill="#A877B2" width="14.968" height="8.01"/>
</g>
</svg>
